Chisel/test_run_dir/Debouncer_should_emit_a_pulse/debounce.vcd
$date
2026-05-01T12:35+0000
$end
$version
0.2
$end
$comment

$end
$timescale 1ns  $end
$scope module debounce $end
 $var wire 1 ! io_out $end
 $var wire 1 " btnDebReg $end
 $var wire 1 # btnCleanPrev $end
 $var wire 1 $ tick $end
 $var wire 1 % clock $end
 $var wire 1 & io_state $end
 $var wire 1 ' btn_sync_REG $end
 $var wire 1 ( io_btn_in $end
 $var wire 1 ) btn_sync $end
 $var wire 32 * cntReg $end
 $var wire 1 + reset $end
$upscope $end
$enddefinitions $end
$dumpvars
0!
b00000000000000000000000000000000 *
0"
0#
0$
0%
0&
0'
0(
0)
0+
$end
#0
1+
#1
1%
#6
0%
0+
#11
1%
b00000000000000000000000000000001 *
#16
0%
1(
#21
1%
1'
b00000000000000000000000000000010 *
#26
0%
0(
#31
1%
0'
1)
b00000000000000000000000000000011 *
#36
0%
#41
1%
0)
b00000000000000000000000000000100 *
#46
0%
#51
1%
b00000000000000000000000000000101 *
#56
0%
#61
1%
b00000000000000000000000000000110 *
#66
0%
#71
1%
b00000000000000000000000000000111 *
#76
0%
#81
1%
b00000000000000000000000000001000 *
#86
0%
#91
1$
1%
b00000000000000000000000000001001 *
#96
0%
#101
0$
1%
b00000000000000000000000000000000 *
#106
0%
#111
1%
b00000000000000000000000000000001 *
#116
0%
#121
1%
b00000000000000000000000000000010 *
